time_delay/wave.vcd
$date
	Thu Apr 09 21:43:53 2026
$end
$version
	Icarus Verilog
$end
$timescale
	1ns
$end
$scope module test $end
$var wire 1 ! so_normal $end
$var wire 1 " so_lose $end
$var wire 1 # so_get $end
$var reg 1 $ ai $end
$var reg 1 % bi $end
$scope module u_wire_delay $end
$var wire 1 $ ai $end
$var wire 1 % bi $end
$var wire 1 # so_get $end
$var wire 1 " so_lose $end
$var wire 1 ! so_normal $end
$upscope $end
$upscope $end
$enddefinitions $end
$comment Show the parameter values. $end
$dumpall
$end
#0
$dumpvars
0%
0$
x#
x"
0!
$end
#20
1$
#30
1!
1%
#40
0!
0$
#60
1$
0%
#80
0$
#90
1%
#100
1!
1$
